{
  "_embedded" : {
    "concepts" : [ {
      "id" : "0ebb614b-d93f-49cd-a03d-a18645eff9f4",
      "uri" : "https://fellesdatakatalog.brreg.no/api/concepts/0ebb614b-d93f-49cd-a03d-a18645eff9f4",
      "identifier" : "https://registrering-begrep-api.fellesdatakatalog.brreg.no/961181399/c12f144e-e9d4-4581-9351-5af37abd8a68",
      "application" : [ ],
      "definition" : {
        "text" : {
          "nn" : "ei logisk avgrensa informasjonsmengd som er lagra på eit medium for seinare lesing, lyding, framsyning eller overføring"
        },
        "source" : {
          "prefLabel" : {
            "nb" : "lov 4. desember 1992 nr. 126 om arkiv"
          }
        },
        "sourceRelationship" : "sitatFraKilde",
        "sources" : [ {
          "text" : {
            "nb" : "lov 4. desember 1992 nr. 126 om arkiv"
          },
          "uri" : "https://lovdata.no/lov/1992-12-04-126/§2"
        } ]
      },
      "prefLabel" : {
        "nn" : "dokument"
      },
      "altLabel" : [ ],
      "hiddenLabel" : [ ],
      "contactPoint" : {
        "email" : "begrep@arkivverket.no"
      },
      "seeAlso" : [ ],
      "harvest" : {
        "firstHarvested" : "2020-02-10T15:09:18.692+0000",
        "lastHarvested" : "2020-02-10T15:09:18.692+0000"
      }
    }, {
      "id" : "edd4fb5c-6180-4b3d-8c74-b77015fc43bf",
      "uri" : "https://fellesdatakatalog.brreg.no/api/concepts/edd4fb5c-6180-4b3d-8c74-b77015fc43bf",
      "identifier" : "http://begrepskatalogen/begrep/20b52b14-9fe1-11e5-a9f8-e4115b280940",
      "application" : [ ],
      "definition" : {
        "text" : {
          "nb" : "identifiserende nøkkel for dokumentrevisjonen"
        },
        "sources" : [ ]
      },
      "subject" : {
        "nb" : "Skatteinfo"
      },
      "prefLabel" : {
        "nb" : "dokumentidentifikator"
      },
      "altLabel" : [ ],
      "hiddenLabel" : [ ],
      "contactPoint" : {
        "email" : "begrepskatalogen@skatteetaten.no"
      },
      "seeAlso" : [ ],
      "harvest" : {
        "firstHarvested" : "2020-02-10T15:09:18.118+0000",
        "lastHarvested" : "2020-02-10T15:09:18.118+0000"
      }
    }, {
      "id" : "20ec55a9-5382-4b4d-91e5-fd23bc1f3ac5",
      "uri" : "https://fellesdatakatalog.brreg.no/api/concepts/20ec55a9-5382-4b4d-91e5-fd23bc1f3ac5",
      "identifier" : "https://registrering-begrep-api.fellesdatakatalog.brreg.no/961181399/b1af69aa-0c56-40ca-ba2d-37f1e920efbf",
      "application" : [ ],
      "definition" : {
        "text" : {
          "nb" : "dato som er påført selve dokumentet"
        },
        "source" : {
          "prefLabel" : {
            "nb" : "Noark 5-standarden"
          }
        },
        "sourceRelationship" : "sitatFraKilde",
        "sources" : [ {
          "text" : {
            "nb" : "Noark 5-standarden"
          },
          "uri" : ""
        } ]
      },
      "prefLabel" : {
        "nb" : "dokumentdato"
      },
      "altLabel" : [ ],
      "hiddenLabel" : [ ],
      "contactPoint" : {
        "email" : "begrep@arkivverket.no"
      },
      "seeAlso" : [ ],
      "harvest" : {
        "firstHarvested" : "2020-02-10T15:09:19.019+0000",
        "lastHarvested" : "2020-02-10T15:09:19.019+0000"
      }
    }, {
      "id" : "8d26c117-73f7-47db-9c01-de7b846397bc",
      "uri" : "https://fellesdatakatalog.brreg.no/api/concepts/8d26c117-73f7-47db-9c01-de7b846397bc",
      "identifier" : "http://data.brreg.no/begrep/53615",
      "application" : [ ],
      "definition" : {
        "text" : {
          "nb" : "løpende nummer for hver registrering i Løsøreregisteret"
        },
        "remark" : {
          "nb" : "Et dokumentnummer består av årstall og automatisk tildelt løpenummer. "
        },
        "source" : {
          "prefLabel" : {
            "nb" : "Forskrift om tinglysing § 11 tredje ledd og § 16 annet ledd bokstav e). _Forskrift 3. november 1995 nr. 875 om tinglysing_ https://lovdata.no/forskrift/1995-11-03-875"
          }
        },
        "sources" : [ {
          "text" : {
            "nb" : "Forskrift om tinglysing § 11 tredje ledd og § 16 annet ledd bokstav e). _Forskrift 3. november 1995 nr. 875 om tinglysing_ https://lovdata.no/forskrift/1995-11-03-875"
          }
        } ]
      },
      "subject" : {
        "nb" : "Tinglysing"
      },
      "prefLabel" : {
        "nb" : "dokumentnummer"
      },
      "altLabel" : [ {
        "nb" : "dagboknummer"
      } ],
      "hiddenLabel" : [ ],
      "contactPoint" : {
        "email" : "informasjonsforvaltning@brreg.no",
        "telephone" : "+4775007500"
      },
      "example" : {
        "no" : "2018000068."
      },
      "seeAlso" : [ ],
      "harvest" : {
        "firstHarvested" : "2020-02-10T15:09:18.456+0000",
        "lastHarvested" : "2020-02-10T15:09:18.456+0000"
      }
    }, {
      "id" : "1457e548-1c16-4a35-952a-7f4271e36163",
      "uri" : "https://fellesdatakatalog.brreg.no/api/concepts/1457e548-1c16-4a35-952a-7f4271e36163",
      "identifier" : "http://begrepskatalogen/begrep/8ef7c456-0ef8-11e7-a910-005056821322",
      "application" : [ ],
      "definition" : {
        "text" : {
          "nb" : "etablerer et rammeverk for policy, mål og retningslinjer for å kontrollere organisasjonens dokumentasjon i dokumentasjonssystemer og som sikrer at disse systemene oppfyller organisasjonens krav"
        },
        "sources" : [ ]
      },
      "subject" : {
        "nb" : "Arkiv"
      },
      "prefLabel" : {
        "nb" : "ledelsessystem for dokumentasjon"
      },
      "altLabel" : [ ],
      "hiddenLabel" : [ ],
      "contactPoint" : {
        "email" : "begrepskatalogen@skatteetaten.no"
      },
      "validFromIncluding" : "2017-03-01",
      "validToIncluding" : "2022-03-01",
      "seeAlso" : [ ],
      "harvest" : {
        "firstHarvested" : "2020-02-10T15:09:18.921+0000",
        "lastHarvested" : "2020-02-10T15:09:18.921+0000"
      }
    }, {
      "id" : "ed01b8fc-ceb2-4e63-9dbf-f95b9100a7dc",
      "uri" : "https://fellesdatakatalog.brreg.no/api/concepts/ed01b8fc-ceb2-4e63-9dbf-f95b9100a7dc",
      "identifier" : "https://registrering-begrep-api.fellesdatakatalog.brreg.no/961181399/2e57e1ba-b3cb-44cb-b5de-0f53ddb91bda",
      "application" : [ ],
      "definition" : {
        "text" : {
          "nb" : "identifikasjonsnummer for registrerte saker og dokumenter i et arkivsystem"
        },
        "sourceRelationship" : "egendefinert",
        "sources" : [ ]
      },
      "prefLabel" : {
        "nb" : "saks- og dokumentnummer"
      },
      "altLabel" : [ ],
      "hiddenLabel" : [ ],
      "contactPoint" : {
        "email" : "begrep@arkivverket.no"
      },
      "seeAlso" : [ ],
      "harvest" : {
        "firstHarvested" : "2020-02-10T15:09:18.338+0000",
        "lastHarvested" : "2020-02-10T15:09:18.338+0000"
      }
    }, {
      "id" : "2a8d16fd-333d-41b6-a722-50c3b23f1894",
      "uri" : "https://fellesdatakatalog.brreg.no/api/concepts/2a8d16fd-333d-41b6-a722-50c3b23f1894",
      "identifier" : "http://data.brreg.no/begrep/28293",
      "application" : [ ],
      "definition" : {
        "text" : {
          "nb" : "skal i prinsippet være mottaksdatoen for et innkommet dokument, og for et egenprodusert dokument datoen for det tidspunktet arkivtjenesten har kvalitetssikret dokumentet, etter at det er sendt eller avsluttet"
        },
        "remark" : {
          "nb" : "Med mottaksdato menes her den datoen da et innkommet dokument kom inn til eller ble lagt fram for organet.\n\nI følge arkivforskriften § 10 skal journaldato oppgis i journalen. \n\nJournaldato er også et utvalgskriterium for den samlede kronologisk ordnete rapporten over samtlige registreringer innenfor perioden."
        },
        "source" : {
          "prefLabel" : {
            "nb" : "arkivverket_fdk.turtle (2016) Noark5-standarden [Internett]. Versjon 4.0 Standard for elektronisk arkiv. Tilgjengelig fra https://www.arkivverket.no/ [Lest 10. januar 2018]"
          }
        },
        "sources" : [ {
          "text" : {
            "nb" : "arkivverket_fdk.turtle (2016) Noark5-standarden [Internett]. Versjon 4.0 Standard for elektronisk arkiv. Tilgjengelig fra https://www.arkivverket.no/ [Lest 10. januar 2018]"
          }
        } ]
      },
      "subject" : {
        "nb" : "Arkiv"
      },
      "prefLabel" : {
        "nb" : "journalføringsdato"
      },
      "altLabel" : [ {
        "nb" : "Journaldato"
      } ],
      "hiddenLabel" : [ ],
      "contactPoint" : {
        "email" : "informasjonsforvaltning@brreg.no",
        "telephone" : "+4775007500"
      },
      "seeAlso" : [ ],
      "harvest" : {
        "firstHarvested" : "2020-02-10T15:09:18.776+0000",
        "lastHarvested" : "2020-02-10T15:09:18.776+0000"
      }
    }, {
      "id" : "1d989335-cb60-4a8d-b038-d85dbc1b4332",
      "uri" : "https://fellesdatakatalog.brreg.no/api/concepts/1d989335-cb60-4a8d-b038-d85dbc1b4332",
      "identifier" : "https://registrering-begrep-api.fellesdatakatalog.brreg.no/961181399/a6be75b5-2705-4ea5-b1f2-e887f5619a5b",
      "application" : [ ],
      "definition" : {
        "text" : {
          "nb" : "dato et dokument ble avskrevet"
        },
        "source" : {
          "prefLabel" : {
            "nb" : "Noark 5"
          }
        },
        "sourceRelationship" : "sitatFraKilde",
        "sources" : [ {
          "text" : {
            "nb" : "Noark 5"
          },
          "uri" : ""
        } ]
      },
      "prefLabel" : {
        "nb" : "avskrivningsdato"
      },
      "altLabel" : [ ],
      "hiddenLabel" : [ ],
      "contactPoint" : {
        "email" : "begrep@arkivverket.no"
      },
      "seeAlso" : [ ],
      "harvest" : {
        "firstHarvested" : "2020-02-10T15:09:18.066+0000",
        "lastHarvested" : "2020-02-10T15:09:18.066+0000"
      }
    }, {
      "id" : "d5a51148-69a2-49f0-bc48-89c1e21c904c",
      "uri" : "https://fellesdatakatalog.brreg.no/api/concepts/d5a51148-69a2-49f0-bc48-89c1e21c904c",
      "identifier" : "http://begrepskatalogen/begrep/8ef7c41b-0ef8-11e7-a910-005056821322",
      "application" : [ ],
      "definition" : {
        "text" : {
          "nb" : "lagre informasjon, dvs. et dokument eller en beslutning i organets arkivsystem"
        },
        "sources" : [ ]
      },
      "subject" : {
        "nb" : "Arkiv"
      },
      "prefLabel" : {
        "nb" : "arkivering"
      },
      "altLabel" : [ ],
      "hiddenLabel" : [ ],
      "contactPoint" : {
        "email" : "begrepskatalogen@skatteetaten.no"
      },
      "validFromIncluding" : "2017-03-01",
      "validToIncluding" : "2022-03-01",
      "seeAlso" : [ ],
      "harvest" : {
        "firstHarvested" : "2020-02-10T15:09:18.257+0000",
        "lastHarvested" : "2020-02-10T15:09:18.257+0000"
      }
    }, {
      "id" : "618dffea-6b39-4e1c-905a-a6fffa0da5bb",
      "uri" : "https://fellesdatakatalog.brreg.no/api/concepts/618dffea-6b39-4e1c-905a-a6fffa0da5bb",
      "identifier" : "https://registrering-begrep-api.fellesdatakatalog.brreg.no/961181399/a5ddfcdf-4217-4195-bd5a-b068a95f2936",
      "application" : [ ],
      "definition" : {
        "text" : {
          "nb" : "registrering av opplysninger i journalen om når og hvordan behandlingen av et inngående dokument er blitt avsluttet"
        },
        "sourceRelationship" : "egendefinert",
        "sources" : [ ]
      },
      "prefLabel" : {
        "nb" : "avskrivning"
      },
      "altLabel" : [ ],
      "hiddenLabel" : [ ],
      "contactPoint" : {
        "email" : "begrep@arkivverket.no"
      },
      "seeAlso" : [ ],
      "harvest" : {
        "firstHarvested" : "2020-02-10T15:09:19.037+0000",
        "lastHarvested" : "2020-02-10T15:09:19.037+0000"
      }
    } ]
  },
  "page" : {
    "size" : 10,
    "totalElements" : 12,
    "totalPages" : 2,
    "number" : 0
  }
}